\BOOKMARK [0][-]{chapter.1}{\376\377\000S\000y\000s\000t\000e\000m\000\040\000D\000e\000s\000c\000r\000i\000p\000t\000i\000o\000n}{}% 1
\BOOKMARK [1][-]{section.1.1}{\376\377\000F\000r\000o\000n\000t\000\040\000P\000a\000n\000e\000l\000\040\000E\000l\000e\000m\000e\000n\000t\000s}{chapter.1}% 2
\BOOKMARK [1][-]{section.1.2}{\376\377\000B\000a\000c\000k\000\040\000P\000a\000n\000e\000l\000\040\000E\000l\000e\000m\000e\000n\000t\000s}{chapter.1}% 3
\BOOKMARK [0][-]{chapter.2}{\376\377\000U\000n\000p\000a\000c\000k\000i\000n\000g\000\040\000t\000h\000e\000\040\000S\000y\000s\000t\000e\000m}{}% 4
\BOOKMARK [0][-]{chapter.3}{\376\377\000S\000e\000t\000t\000i\000n\000g\000\040\000U\000p\000\040\000t\000h\000e\000\040\000S\000y\000s\000t\000e\000m}{}% 5
\BOOKMARK [1][-]{section.3.1}{\376\377\000S\000e\000t\000t\000i\000n\000g\000\040\000u\000p\000\040\000t\000h\000e\000\040\000M\000P\000S\000\040\000f\000o\000r\000\040\000O\000p\000e\000r\000a\000t\000i\000o\000n}{chapter.3}% 6
\BOOKMARK [1][-]{section.3.2}{\376\377\000T\000u\000r\000n\000i\000n\000g\000\040\000O\000N\000\040\000t\000h\000e\000\040\000M\000P\000S}{chapter.3}% 7
\BOOKMARK [0][-]{chapter.4}{\376\377\000O\000p\000e\000r\000a\000t\000i\000o\000n}{}% 8
\BOOKMARK [1][-]{section.4.1}{\376\377\000S\000e\000t\000t\000i\000n\000g\000\040\000t\000h\000e\000\040\000O\000u\000t\000p\000u\000t\000\040\000F\000r\000e\000q\000u\000e\000n\000c\000y}{chapter.4}% 9
\BOOKMARK [1][-]{section.4.2}{\376\377\000S\000e\000t\000t\000i\000n\000g\000\040\000t\000h\000e\000\040\000O\000u\000t\000p\000u\000t\000\040\000P\000o\000w\000e\000r}{chapter.4}% 10
\BOOKMARK [1][-]{section.4.3}{\376\377\000S\000w\000i\000t\000c\000h\000i\000n\000g\000\040\000b\000e\000t\000w\000e\000e\000n\000\040\000E\000P\000R\000\040\000a\000n\000d\000\040\000D\000N\000P\000\040\000O\000p\000e\000r\000a\000t\000i\000o\000n}{chapter.4}% 11
\BOOKMARK [1][-]{section.4.4}{\376\377\000E\000n\000a\000b\000l\000i\000n\000g\000/\000D\000i\000s\000a\000b\000l\000i\000n\000g\000\040\000t\000h\000e\000\040\000O\000u\000t\000p\000u\000t\000\040\000P\000o\000w\000e\000r}{chapter.4}% 12
\BOOKMARK [1][-]{section.4.5}{\376\377\000U\000s\000i\000n\000g\000\040\000t\000h\000e\000\040\000E\000x\000t\000e\000r\000n\000a\000l\000\040\000T\000r\000i\000g\000g\000e\000r\000\040\000\050\000o\000p\000t\000i\000o\000n\000a\000l\000\051}{chapter.4}% 13
\BOOKMARK [1][-]{section.4.6}{\376\377\000E\000n\000t\000e\000r\000i\000n\000g\000\040\000t\000h\000e\000\040\000A\000d\000v\000a\000n\000c\000e\000d\000\040\000V\000i\000e\000w}{chapter.4}% 14
\BOOKMARK [2][-]{subsection.4.6.1}{\376\377\000P\000o\000w\000e\000r\000\040\000M\000o\000n\000i\000t\000o\000r\000i\000n\000g\000\040\000\050\000R\000x\000\040\000a\000n\000d\000\040\000T\000x\000\051}{section.4.6}% 15
\BOOKMARK [2][-]{subsection.4.6.2}{\376\377\000T\000u\000n\000i\000n\000g\000\040\000t\000h\000e\000\040\000E\000P\000R\000\040\000R\000e\000s\000o\000n\000a\000t\000o\000r}{section.4.6}% 16
\BOOKMARK [2][-]{subsection.4.6.3}{\376\377\000E\000n\000a\000b\000l\000i\000n\000g\000\040\000t\000h\000e\000\040\000L\000o\000c\000k\000\040\000F\000e\000a\000t\000u\000r\000e}{section.4.6}% 17
\BOOKMARK [2][-]{subsection.4.6.4}{\376\377\000M\000i\000c\000r\000o\000w\000a\000v\000e\000\040\000A\000m\000p\000l\000i\000f\000i\000e\000r\000\040\000T\000e\000m\000p\000e\000r\000a\000t\000u\000r\000e\000\040\000M\000o\000n\000i\000t\000o\000r}{section.4.6}% 18
\BOOKMARK [0][-]{chapter.5}{\376\377\000R\000e\000m\000o\000t\000e\000\040\000I\000n\000t\000e\000r\000f\000a\000c\000e}{}% 19
\BOOKMARK [1][-]{section.5.1}{\376\377\000S\000e\000r\000i\000a\000l\000\040\000P\000o\000r\000t\000\040\000C\000o\000n\000f\000i\000g\000u\000r\000a\000t\000i\000o\000n}{chapter.5}% 20
\BOOKMARK [1][-]{section.5.2}{\376\377\000C\000o\000m\000m\000u\000n\000i\000c\000a\000t\000i\000n\000g\000\040\000w\000i\000t\000h\000\040\000t\000h\000e\000\040\000M\000P\000S}{chapter.5}% 21
\BOOKMARK [1][-]{section.5.3}{\376\377\000C\000o\000m\000m\000a\000n\000d\000\040\000S\000y\000n\000t\000a\000x}{chapter.5}% 22
\BOOKMARK [1][-]{section.5.4}{\376\377\000P\000y\000t\000h\000o\000n\000\040\000P\000a\000c\000k\000a\000g\000e\000\040\000t\000o\000\040\000C\000o\000n\000t\000r\000o\000l\000\040\000t\000h\000e\000\040\000M\000P\000S}{chapter.5}% 23
\BOOKMARK [1][-]{section.5.5}{\376\377\000L\000i\000s\000t\000\040\000o\000f\000\040\000A\000v\000a\000i\000l\000a\000b\000l\000e\000\040\000C\000o\000m\000m\000a\000n\000d\000s}{chapter.5}% 24
\BOOKMARK [2][-]{subsection.5.5.1}{\376\377\000E\000x\000a\000m\000p\000l\000e\000\040\000w\000i\000t\000h\000\040\000p\000y\000S\000e\000r\000i\000a\000l}{section.5.5}% 25
\BOOKMARK [0][-]{chapter.6}{\376\377\000M\000a\000i\000n\000t\000e\000n\000a\000n\000c\000e}{}% 26
\BOOKMARK [1][-]{section.6.1}{\376\377\000F\000i\000r\000m\000w\000a\000r\000e\000\040\000U\000p\000g\000r\000a\000d\000e}{chapter.6}% 27
\BOOKMARK [0][-]{chapter.7}{\376\377\000S\000y\000s\000t\000e\000m\000\040\000S\000p\000e\000c\000i\000f\000i\000c\000a\000t\000i\000o\000n\000s}{}% 28
\BOOKMARK [0][-]{chapter.8}{\376\377\000A\000p\000p\000e\000n\000d\000i\000x}{}% 29
\BOOKMARK [1][-]{section.8.1}{\376\377\000C\000o\000n\000v\000e\000r\000s\000i\000o\000n\000\040\000T\000a\000b\000l\000e\000:\000\040\000d\000B\000m\000\040\000t\000o\000\040\000W}{chapter.8}% 30
\BOOKMARK [0][-]{chapter.9}{\376\377\000T\000h\000e\000\040\000F\000i\000n\000e\000p\000r\000i\000n\000t}{}% 31
\BOOKMARK [1][-]{section.9.1}{\376\377\000N\000o\000t\000i\000c\000e\000s}{chapter.9}% 32
\BOOKMARK [1][-]{section.9.2}{\376\377\000W\000a\000r\000r\000a\000n\000t\000y}{chapter.9}% 33
\BOOKMARK [2][-]{subsection.9.2.1}{\376\377\000T\000e\000c\000h\000n\000o\000l\000o\000g\000y\000\040\000L\000i\000c\000e\000n\000s\000e}{section.9.2}% 34
\BOOKMARK [0][-]{chapter.10}{\376\377\000I\000n\000d\000e\000x}{}% 35
\BOOKMARK [0][-]{section*.4}{\376\377\000I\000n\000d\000e\000x}{}% 36
