\relax 
\providecommand\hyper@newdestlabel[2]{}
\bbl@cs{beforestart}
\providecommand\HyperFirstAtBeginDocument{\AtBeginDocument}
\HyperFirstAtBeginDocument{\ifx\hyper@anchor\@undefined
\global\let\oldcontentsline\contentsline
\gdef\contentsline#1#2#3#4{\oldcontentsline{#1}{#2}{#3}}
\global\let\oldnewlabel\newlabel
\gdef\newlabel#1#2{\newlabelxx{#1}#2}
\gdef\newlabelxx#1#2#3#4#5#6{\oldnewlabel{#1}{{#2}{#3}}}
\AtEndDocument{\ifx\hyper@anchor\@undefined
\let\contentsline\oldcontentsline
\let\newlabel\oldnewlabel
\fi}
\fi}
\global\let\hyper@last\relax 
\gdef\HyperFirstAtBeginDocument#1{#1}
\providecommand\HyField@AuxAddToFields[1]{}
\providecommand\HyField@AuxAddToCoFields[2]{}
\babel@aux{english}{}
\newlabel{index::doc}{{}{1}{\contentsname \@mkboth {\MakeUppercase \contentsname }{\MakeUppercase \contentsname }}{section*.3}{}}
\@writefile{lof}{\contentsline {figure}{\numberline {1}{\ignorespaces The Bridge12 Microwave Power Source (MPS) for ODNP Spectrosopy}}{1}{figure.0.1}\protected@file@percent }
\newlabel{index:id1}{{1}{1}{The Bridge12 Microwave Power Source (MPS) for ODNP Spectrosopy}{figure.0.1}{}}
\newlabel{index:index-frontpanel}{{1}{1}{The Bridge12 Microwave Power Source (MPS) for ODNP Spectrosopy}{figure.0.1}{}}
\@writefile{toc}{\contentsline {chapter}{\numberline {1}System Description}{3}{chapter.1}\protected@file@percent }
\@writefile{lof}{\addvspace {10\p@ }}
\@writefile{lot}{\addvspace {10\p@ }}
\newlabel{Description:system-description}{{1}{3}{System Description}{chapter.1}{}}
\newlabel{Description::doc}{{1}{3}{System Description}{chapter.1}{}}
\@writefile{toc}{\contentsline {section}{\numberline {1.1}Front Panel Elements}{4}{section.1.1}\protected@file@percent }
\newlabel{Description:front-panel-elements}{{1.1}{4}{Front Panel Elements}{section.1.1}{}}
\@writefile{lof}{\contentsline {figure}{\numberline {1.1}{\ignorespaces MPS Front Panel}}{4}{figure.1.1}\protected@file@percent }
\newlabel{Description:id1}{{1.1}{4}{MPS Front Panel}{figure.1.1}{}}
\newlabel{Description:sd-frontpanel}{{1.1}{4}{MPS Front Panel}{figure.1.1}{}}
\@writefile{toc}{\contentsline {section}{\numberline {1.2}Back Panel Elements}{5}{section.1.2}\protected@file@percent }
\newlabel{Description:back-panel-elements}{{1.2}{5}{Back Panel Elements}{section.1.2}{}}
\@writefile{lof}{\contentsline {figure}{\numberline {1.2}{\ignorespaces MPS Back Panel}}{5}{figure.1.2}\protected@file@percent }
\newlabel{Description:id2}{{1.2}{5}{MPS Back Panel}{figure.1.2}{}}
\newlabel{Description:sd-backpanel}{{1.2}{5}{MPS Back Panel}{figure.1.2}{}}
\@writefile{toc}{\contentsline {chapter}{\numberline {2}Unpacking the System}{7}{chapter.2}\protected@file@percent }
\@writefile{lof}{\addvspace {10\p@ }}
\@writefile{lot}{\addvspace {10\p@ }}
\newlabel{Unpacking:unpacking-the-system}{{2}{7}{Unpacking the System}{chapter.2}{}}
\newlabel{Unpacking::doc}{{2}{7}{Unpacking the System}{chapter.2}{}}
\@writefile{toc}{\contentsline {chapter}{\numberline {3}Setting Up the System}{9}{chapter.3}\protected@file@percent }
\@writefile{lof}{\addvspace {10\p@ }}
\@writefile{lot}{\addvspace {10\p@ }}
\newlabel{Setup:setting-up-the-system}{{3}{9}{Setting Up the System}{chapter.3}{}}
\newlabel{Setup::doc}{{3}{9}{Setting Up the System}{chapter.3}{}}
\@writefile{toc}{\contentsline {section}{\numberline {3.1}Setting up the MPS for Operation}{9}{section.3.1}\protected@file@percent }
\newlabel{Setup:setting-up-the-mps-for-operation}{{3.1}{9}{Setting up the MPS for Operation}{section.3.1}{}}
\@writefile{lof}{\contentsline {figure}{\numberline {3.1}{\ignorespaces Back panel power connector}}{10}{figure.3.1}\protected@file@percent }
\newlabel{Setup:id1}{{3.1}{10}{Back panel power connector}{figure.3.1}{}}
\newlabel{Setup:setup-powerconnector}{{3.1}{10}{Back panel power connector}{figure.3.1}{}}
\@writefile{toc}{\contentsline {section}{\numberline {3.2}Turning ON the MPS}{11}{section.3.2}\protected@file@percent }
\newlabel{Setup:turning-on-the-mps}{{3.2}{11}{Turning ON the MPS}{section.3.2}{}}
\@writefile{lof}{\contentsline {figure}{\numberline {3.2}{\ignorespaces Microwave connections for SMA breakout and resonator. Connection to the automated waveguide switch}}{12}{figure.3.2}\protected@file@percent }
\newlabel{Setup:id2}{{3.2}{12}{Microwave connections for SMA breakout and resonator. Connection to the automated waveguide switch}{figure.3.2}{}}
\newlabel{Setup:setup-frontconnection}{{3.2}{12}{Microwave connections for SMA breakout and resonator. Connection to the automated waveguide switch}{figure.3.2}{}}
\@writefile{lof}{\contentsline {figure}{\numberline {3.3}{\ignorespaces Bridge12 MPS startup screen}}{13}{figure.3.3}\protected@file@percent }
\newlabel{Setup:id3}{{3.3}{13}{Bridge12 MPS startup screen}{figure.3.3}{}}
\@writefile{lof}{\contentsline {figure}{\numberline {3.4}{\ignorespaces Front panel display of main screen. The system is ready.}}{13}{figure.3.4}\protected@file@percent }
\newlabel{Setup:id4}{{3.4}{13}{Front panel display of main screen. The system is ready}{figure.3.4}{}}
\@writefile{toc}{\contentsline {chapter}{\numberline {4}Operation}{15}{chapter.4}\protected@file@percent }
\@writefile{lof}{\addvspace {10\p@ }}
\@writefile{lot}{\addvspace {10\p@ }}
\newlabel{Operation:operation}{{4}{15}{Operation}{chapter.4}{}}
\newlabel{Operation::doc}{{4}{15}{Operation}{chapter.4}{}}
\@writefile{lof}{\contentsline {figure}{\numberline {4.1}{\ignorespaces Left: MPS set to change the output frequency. Right: MPS set to change the output power level}}{15}{figure.4.1}\protected@file@percent }
\newlabel{Operation:id1}{{4.1}{15}{Left: MPS set to change the output frequency. Right: MPS set to change the output power level}{figure.4.1}{}}
\newlabel{Operation:operation-frequencypower}{{4.1}{15}{Left: MPS set to change the output frequency. Right: MPS set to change the output power level}{figure.4.1}{}}
\@writefile{toc}{\contentsline {section}{\numberline {4.1}Setting the Output Frequency}{16}{section.4.1}\protected@file@percent }
\newlabel{Operation:setting-the-output-frequency}{{4.1}{16}{Setting the Output Frequency}{section.4.1}{}}
\@writefile{toc}{\contentsline {section}{\numberline {4.2}Setting the Output Power}{16}{section.4.2}\protected@file@percent }
\newlabel{Operation:setting-the-output-power}{{4.2}{16}{Setting the Output Power}{section.4.2}{}}
\@writefile{toc}{\contentsline {section}{\numberline {4.3}Switching between EPR and DNP Operation}{16}{section.4.3}\protected@file@percent }
\newlabel{Operation:switching-between-epr-and-dnp-operation}{{4.3}{16}{Switching between EPR and DNP Operation}{section.4.3}{}}
\@writefile{lof}{\contentsline {figure}{\numberline {4.2}{\ignorespaces Left: Waveguide switch control button (orange). Right: Microwave (RF) ON/OFF button (green)}}{17}{figure.4.2}\protected@file@percent }
\newlabel{Operation:id2}{{4.2}{17}{Left: Waveguide switch control button (orange). Right: Microwave (RF) ON/OFF button (green)}{figure.4.2}{}}
\newlabel{Operation:operation-eprdnpoperation}{{4.2}{17}{Left: Waveguide switch control button (orange). Right: Microwave (RF) ON/OFF button (green)}{figure.4.2}{}}
\@writefile{lof}{\contentsline {figure}{\numberline {4.3}{\ignorespaces Waveguide switch postions}}{17}{figure.4.3}\protected@file@percent }
\newlabel{Operation:id3}{{4.3}{17}{Waveguide switch postions}{figure.4.3}{}}
\@writefile{toc}{\contentsline {section}{\numberline {4.4}Enabling/Disabling the Output Power}{18}{section.4.4}\protected@file@percent }
\newlabel{Operation:enabling-disabling-the-output-power}{{4.4}{18}{Enabling/Disabling the Output Power}{section.4.4}{}}
\@writefile{toc}{\contentsline {section}{\numberline {4.5}Using the External Trigger (optional)}{18}{section.4.5}\protected@file@percent }
\newlabel{Operation:using-the-external-trigger-optional}{{4.5}{18}{Using the External Trigger (optional)}{section.4.5}{}}
\@writefile{toc}{\contentsline {section}{\numberline {4.6}Entering the Advanced View}{19}{section.4.6}\protected@file@percent }
\newlabel{Operation:entering-the-advanced-view}{{4.6}{19}{Entering the Advanced View}{section.4.6}{}}
\@writefile{toc}{\contentsline {subsection}{\numberline {4.6.1}Power Monitoring (Rx and Tx)}{19}{subsection.4.6.1}\protected@file@percent }
\newlabel{Operation:power-monitoring-rx-and-tx}{{4.6.1}{19}{Power Monitoring (Rx and Tx)}{subsection.4.6.1}{}}
\@writefile{lof}{\contentsline {figure}{\numberline {4.4}{\ignorespaces High\sphinxhyphen {}level schematics of the Bridge12 MPS}}{19}{figure.4.4}\protected@file@percent }
\newlabel{Operation:id4}{{4.4}{19}{High\sphinxhyphen {}level schematics of the Bridge12 MPS}{figure.4.4}{}}
\@writefile{toc}{\contentsline {subsection}{\numberline {4.6.2}Tuning the EPR Resonator}{20}{subsection.4.6.2}\protected@file@percent }
\newlabel{Operation:tuning-the-epr-resonator}{{4.6.2}{20}{Tuning the EPR Resonator}{subsection.4.6.2}{}}
\@writefile{toc}{\contentsline {subsection}{\numberline {4.6.3}Enabling the Lock Feature}{21}{subsection.4.6.3}\protected@file@percent }
\newlabel{Operation:enabling-the-lock-feature}{{4.6.3}{21}{Enabling the Lock Feature}{subsection.4.6.3}{}}
\@writefile{toc}{\contentsline {subsection}{\numberline {4.6.4}Microwave Amplifier Temperature Monitor}{22}{subsection.4.6.4}\protected@file@percent }
\newlabel{Operation:microwave-amplifier-temperature-monitor}{{4.6.4}{22}{Microwave Amplifier Temperature Monitor}{subsection.4.6.4}{}}
\@writefile{toc}{\contentsline {chapter}{\numberline {5}Remote Interface}{23}{chapter.5}\protected@file@percent }
\@writefile{lof}{\addvspace {10\p@ }}
\@writefile{lot}{\addvspace {10\p@ }}
\newlabel{Remote:remote-interface}{{5}{23}{Remote Interface}{chapter.5}{}}
\newlabel{Remote::doc}{{5}{23}{Remote Interface}{chapter.5}{}}
\@writefile{toc}{\contentsline {section}{\numberline {5.1}Serial Port Configuration}{24}{section.5.1}\protected@file@percent }
\newlabel{Remote:serial-port-configuration}{{5.1}{24}{Serial Port Configuration}{section.5.1}{}}
\@writefile{lot}{\contentsline {table}{\numberline {5.1}{\ignorespaces Serial Port Configuration}}{24}{table.5.1}\protected@file@percent }
\newlabel{Remote:id1}{{5.1}{24}{Serial Port Configuration}{table.5.1}{}}
\newlabel{Remote:ri-serialportconfiguration}{{5.1}{24}{Serial Port Configuration}{table.5.1}{}}
\@writefile{toc}{\contentsline {section}{\numberline {5.2}Communicating with the MPS}{24}{section.5.2}\protected@file@percent }
\newlabel{Remote:communicating-with-the-mps}{{5.2}{24}{Communicating with the MPS}{section.5.2}{}}
\@writefile{toc}{\contentsline {section}{\numberline {5.3}Command Syntax}{25}{section.5.3}\protected@file@percent }
\newlabel{Remote:command-syntax}{{5.3}{25}{Command Syntax}{section.5.3}{}}
\@writefile{toc}{\contentsline {section}{\numberline {5.4}Python Package to Control the MPS}{25}{section.5.4}\protected@file@percent }
\newlabel{Remote:python-package-to-control-the-mps}{{5.4}{25}{Python Package to Control the MPS}{section.5.4}{}}
\@writefile{toc}{\contentsline {section}{\numberline {5.5}List of Available Commands}{25}{section.5.5}\protected@file@percent }
\newlabel{Remote:list-of-available-commands}{{5.5}{25}{List of Available Commands}{section.5.5}{}}
\@writefile{lot}{\contentsline {table}{\numberline {5.2}{\ignorespaces Serial Port Configuration}}{26}{table.5.2}\protected@file@percent }
\newlabel{Remote:id2}{{5.2}{26}{List of Available Commands}{table.5.2}{}}
\newlabel{Remote:ri-serialcommands}{{5.2}{26}{List of Available Commands}{table.5.2}{}}
\@writefile{toc}{\contentsline {subsection}{\numberline {5.5.1}Example with pySerial}{27}{subsection.5.5.1}\protected@file@percent }
\newlabel{Remote:example-with-pyserial}{{5.5.1}{27}{Example with pySerial}{subsection.5.5.1}{}}
\@writefile{toc}{\contentsline {chapter}{\numberline {6}Maintenance}{29}{chapter.6}\protected@file@percent }
\@writefile{lof}{\addvspace {10\p@ }}
\@writefile{lot}{\addvspace {10\p@ }}
\newlabel{Maintenance:maintenance}{{6}{29}{Maintenance}{chapter.6}{}}
\newlabel{Maintenance::doc}{{6}{29}{Maintenance}{chapter.6}{}}
\@writefile{toc}{\contentsline {section}{\numberline {6.1}Firmware Upgrade}{29}{section.6.1}\protected@file@percent }
\newlabel{Maintenance:firmware-upgrade}{{6.1}{29}{Firmware Upgrade}{section.6.1}{}}
\@writefile{toc}{\contentsline {chapter}{\numberline {7}System Specifications}{31}{chapter.7}\protected@file@percent }
\@writefile{lof}{\addvspace {10\p@ }}
\@writefile{lot}{\addvspace {10\p@ }}
\newlabel{Specifications:system-specifications}{{7}{31}{System Specifications}{chapter.7}{}}
\newlabel{Specifications::doc}{{7}{31}{System Specifications}{chapter.7}{}}
\@writefile{lot}{\contentsline {table}{\numberline {7.1}{\ignorespaces System Specifications (Default Configuration)}}{31}{table.7.1}\protected@file@percent }
\newlabel{Specifications:id1}{{7.1}{31}{System Specifications}{table.7.1}{}}
\newlabel{Specifications:ss-systemspecifications}{{7.1}{31}{System Specifications}{table.7.1}{}}
\@writefile{toc}{\contentsline {chapter}{\numberline {8}Appendix}{33}{chapter.8}\protected@file@percent }
\@writefile{lof}{\addvspace {10\p@ }}
\@writefile{lot}{\addvspace {10\p@ }}
\newlabel{Appendix:appendix}{{8}{33}{Appendix}{chapter.8}{}}
\newlabel{Appendix::doc}{{8}{33}{Appendix}{chapter.8}{}}
\@writefile{toc}{\contentsline {section}{\numberline {8.1}Conversion Table: dBm to W}{33}{section.8.1}\protected@file@percent }
\newlabel{Appendix:conversion-table-dbm-to-w}{{8.1}{33}{Conversion Table: dBm to W}{section.8.1}{}}
\@writefile{toc}{\contentsline {chapter}{\numberline {9}The Fineprint}{35}{chapter.9}\protected@file@percent }
\@writefile{lof}{\addvspace {10\p@ }}
\@writefile{lot}{\addvspace {10\p@ }}
\newlabel{Fineprint:the-fineprint}{{9}{35}{The Fineprint}{chapter.9}{}}
\newlabel{Fineprint::doc}{{9}{35}{The Fineprint}{chapter.9}{}}
\@writefile{toc}{\contentsline {section}{\numberline {9.1}Notices}{35}{section.9.1}\protected@file@percent }
\newlabel{Fineprint:notices}{{9.1}{35}{Notices}{section.9.1}{}}
\@writefile{toc}{\contentsline {section}{\numberline {9.2}Warranty}{36}{section.9.2}\protected@file@percent }
\newlabel{Fineprint:warranty}{{9.2}{36}{Warranty}{section.9.2}{}}
\@writefile{toc}{\contentsline {subsection}{\numberline {9.2.1}Technology License}{36}{subsection.9.2.1}\protected@file@percent }
\newlabel{Fineprint:technology-license}{{9.2.1}{36}{Technology License}{subsection.9.2.1}{}}
\@writefile{toc}{\contentsline {chapter}{\numberline {10}Index}{37}{chapter.10}\protected@file@percent }
\@writefile{lof}{\addvspace {10\p@ }}
\@writefile{lot}{\addvspace {10\p@ }}
\newlabel{index:index}{{10}{37}{Index}{chapter.10}{}}
\@writefile{toc}{\contentsline {chapter}{Index}{39}{section*.4}\protected@file@percent }
